{
    "id": "31263faf-7dac-48e2-b15e-2f113b1dd065",
    "schema": "https://metadata.datadrivendiscovery.org/schemas/v0/pipeline.json",
    "created": "2019-06-20T22:20:15.503643Z",
    "inputs": [
        {
            "name": "inputs"
        }
    ],
    "outputs": [
        {
            "data": "steps.0.produce",
            "name": "results"
        }
    ],
    "steps": [
        {
            "type": "PRIMITIVE",
            "primitive": {
                "id": "36d5472c-e0a4-4ed6-a1d0-2665feacff39",
                "version": "1.5.5",
                "python_path": "d3m.primitives.classification.gaussian_classification.MeanBaseline",
                "name": "Mean Baseline"
            },
            "arguments": {
                "inputs": {
                    "type": "CONTAINER",
                    "data": "inputs.0"
                }
            },
            "outputs": [
                {
                    "id": "produce"
                }
            ]
        }
    ]
}