{
    "id": "55d61e28-11e7-4b11-b87f-351a56435a65",
    "schema": "https://metadata.datadrivendiscovery.org/schemas/v0/pipeline.json",
    "created": "2019-06-20T16:13:29.970222Z",
    "inputs": [
        {
            "name": "inputs"
        }
    ],
    "outputs": [
        {
            "data": "steps.0.produce",
            "name": "results"
        }
    ],
    "steps": [
        {
            "type": "PRIMITIVE",
            "primitive": {
                "id": "fde90b15-155a-3c2a-866c-4a19354cf0c7",
                "version": "0.1.0",
                "python_path": "d3m.primitives.vertex_nomination.spectral_graph_clustering.JHU",
                "name": "jhu.sgc",
                "digest": "5ab6778c20007ab245a4262c170d037dd741855a3377bf99ed4bccc4e3885ce6"
            },
            "arguments": {
                "inputs": {
                    "type": "CONTAINER",
                    "data": "inputs.0"
                }
            },
            "outputs": [
                {
                    "id": "produce"
                }
            ]
        }
    ],
    "digest": "277ba181ebc4a68ffae3567e10a75bf51b32d766c188a39461bae7555485fb55"
}